…
| term             | log_OR |    OR | p.value |
|:-----------------|-------:|------:|--------:|
| (Intercept)      | -0.664 | 0.515 |    0.00 |
| victim_age       |  0.005 | 1.005 |    0.11 |
| victim_sexMale   |  1.037 | 2.820 |    0.00 |
| victim_raceWhite | -0.900 | 0.407 |    0.00 |

``` r
bal_data %>% 
  modelr::add_predictions(fit_bal) %>% 
  mutate(fitted_prob = boot::inv.logit(pred))
```

    ## # A tibble: 2,753 × 14
    ##    city_state  uid   repor…¹ victi…² victi…³ victi…⁴ victi…⁵ victi…⁶   lat   lon
    ##    <chr>       <chr>   <dbl> <chr>   <chr>   <chr>     <dbl> <fct>   <dbl> <dbl>
    ##  1 Baltimore,… Bal-…  2.01e7 NELSON  LEON    Black        17 Male     39.3 -76.7
    ##  2 Baltimore,… Bal-…  2.01e7 GOLF    EDDIE   Black        26 Male     39.3 -76.7
    ##  3 Baltimore,… Bal-…  2.01e7 MACKEN… THOMAS… Black        21 Male     39.4 -76.6
    ##  4 Baltimore,… Bal-…  2.01e7 CANUPP  EDWARD… White        61 Male     39.2 -76.6
    ##  5 Baltimore,… Bal-…  2.01e7 CUNNIN… MICHAEL Black        46 Male     39.4 -76.6
    ##  6 Baltimore,… Bal-…  2.01e7 ALSTON  RAY WI… Black        27 Male     39.3 -76.6
    ##  7 Baltimore,… Bal-…  2.01e7 HENDER… YULE A… Black        21 Male     39.3 -76.6
    ##  8 Baltimore,… Bal-…  2.01e7 MCDOWE… MARCU   Black        16 Male     39.3 -76.6
    ##  9 Baltimore,… Bal-…  2.01e7 GARDNER RODNEY… Black        21 Male     39.3 -76.6
    ## 10 Baltimore,… Bal-…  2.01e7 BURNET… NELSENE Black        44 Female   39.3 -76.7
    ## # … with 2,743 more rows, 4 more variables: disposition <chr>, status <fct>,
    ## #   pred <dbl>, fitted_prob <dbl>, and abbreviated variable names
    ## #   ¹​reported_date, ²​victim_last, ³​victim_first, ⁴​victim_race, ⁵​victim_age,
    ## #   ⁶​victim_sex
